<?xml version="1.0"?>
<svg xmlns="http://www.w3.org/2000/svg" xmlns:xlink="http://www.w3.org/1999/xlink" version="1.1" id="Capa_1" x="0px" y="0px" viewBox="0 0 488.076 488.076" style="enable-background:new 0 0 488.076 488.076;" xml:space="preserve" width="512px" height="512px" class=""><g transform="matrix(1.00889 0 0 1.00889 -2.16939 -2.16939)"><g>
	<g>
		<path d="M0,49.017c0-13.824,11.207-25.03,25.03-25.03h438.017c13.824,0,25.029,11.207,25.029,25.03L262.81,455.745    c0,0-18.772,18.773-37.545,0C206.494,436.973,0,49.017,0,49.017z" data-original="#000000" class="active-path" data-old_color="#333333" fill="#444444"/>
	</g>
	<g>
	</g>
	<g>
	</g>
	<g>
	</g>
	<g>
	</g>
	<g>
	</g>
	<g>
	</g>
	<g>
	</g>
	<g>
	</g>
	<g>
	</g>
	<g>
	</g>
	<g>
	</g>
	<g>
	</g>
	<g>
	</g>
	<g>
	</g>
	<g>
	</g>
</g></g> </svg>
